921202 173728 525
234288 571691 470
461371 420991 444
568647 288315 470
845551 668198 525
798828 89101 509
108553 702655 509
492490 816820 509
319957 330229 384
308678 11213 443
985170 236172 525
86835 936599 525
112467 334006 443
78004 253933 443
959301 885157 507
100124 787665 509
166814 704588 509
907475 46890 525
447905 631669 509
283468 456843 449
568789 14232 470
936593 299406 525
117041 416110 449
681184 661083 442
307334 505764 449
651313 202948 509
625000 376736 470
644155 149783 509
680403 808525 504
677521 506251 509
857605 639834 525
626428 618162 509
915470 974478 507
368748 437026 449
19767 243707 443
968548 357413 525
860079 406691 525
890084 123913 525
779398 273616 509
701978 184416 509
647451 271509 509
131973 394934 443
309074 288997 371
465817 172221 449
630228 910075 525
532258 484220 470
335746 164449 443
522759 607102 452
641953 685142 442
251474 887221 525
574757 525111 452
665915 538100 509
126025 377999 443
397860 626401 509
794640 747510 468
383441 247706 441
800000 643427 504
958542 456249 525
800915 731487 468
897563 576088 525
862633 95125 525
957020 513980 525
422916 905526 525
197542 425454 449
398980 157434 443
991649 726536 525
189439 174998 365
705004 504128 509
314295 473468 449
517061 403617 470
733717 735567 380
182489 7059 383
761402 592187 509
42855 250792 443
427984 107076 449
244806 354812 441
722823 178911 509
957322 12484 525
356837 215769 443
144939 495646 449
286417 535688 470
566721 556940 421
817555 729559 468
98336 452088 449
539232 74714 470
790609 894474 525
227007 69377 386
780053 246022 509
640312 806359 504
696744 902946 525
407040 481761 449
537208 14193 470
117939 947702 525
788760 828891 468
228231 853859 525
533316 171430 470
974486 621381 525
926363 238766 525
275268 418981 449
800003 493630 509
324855 122273 443
991492 597214 525
461251 797219 509
553562 559764 421
407989 506821 449
174855 11208 383
683612 222038 509
105336 862574 525
225519 198810 386
146852 807021 509
101297 542013 470
420273 626165 470
814653 870222 525
318579 116290 443
273038 966652 525
766182 146286 509
945267 613510 525
130172 53347 354
992400 613418 525
984336 897180 507
378274 263406 441
841558 344568 525
509070 495620 426
164590 507500 449
828810 761513 468
734842 275264 509
367473 71129 443
37128 804929 509
293621 904838 525
911466 114372 525
219558 574686 470
12302 860824 525
155440 134769 375
551973 396737 470
298668 869991 525
99176 187300 383
559069 840558 525
45422 906740 525
316630 931415 525
42241 204103 383
375869 576674 470
90124 935030 525
967328 789780 525
643848 133941 509
908962 62837 525
575335 653024 509
624243 603651 447
628327 170423 509
791397 731933 468
229080 318312 443
104125 880875 525
213030 536653 470
390178 435653 449
340219 624860 470
649979 466216 509
945418 838653 507
185869 138197 383
970713 463552 525
468575 842552 525
903479 626771 525
27674 222007 386
11550 634278 509
272601 329480 389
350808 557788 470
387932 41102 443
807922 283676 509
749865 319746 509
344993 703491 509
747249 18338 509
721689 147793 509
896411 883662 445
898951 199396 525
548829 680016 509
26682 334102 443
815565 786347 468
776638 304122 509
494633 695861 509
585122 366014 470
611506 492816 470
775758 304925 509
722434 659105 504
41157 978014 525
650956 621852 509
305943 703667 509
288998 345011 384
710795 96785 509
259106 501124 449
774182 311076 509
506969 282626 449
849410 567832 525
22135 752544 509
784892 381104 509
984779 158387 525
264354 192994 443
253978 120393 443
50533 440247 449
531599 195323 470
443487 921680 525
563930 909984 525
585592 549542 434
140613 116036 344
87909 402089 443
634118 179888 509
137693 487282 449
880815 865053 432
640153 320260 509
879198 706616 525
920059 657230 525
453957 595585 470
648978 350527 509
689429 58006 509
112667 24303 354
582355 106862 470
621835 75626 470
960991 244423 525
436903 2416 449
481927 127777 449
577135 283901 470
594755 221223 470
943980 54189 525
519643 468164 470
517680 900849 525
411439 590272 470
445586 876969 525
938641 389723 525
435545 695506 509
846314 904779 445
25285 698856 509
535968 716466 509
781842 733353 468
736721 914960 525
386352 718495 509
768019 30961 509
535146 537671 377
690784 60554 509
272256 597691 470
979630 549306 525
88673 284780 443
768834 115034 509
42609 303702 443
966834 529381 525
654925 44616 509
709204 620894 509
719979 575900 509
495186 216936 449
511939 997984 525
270356 437458 449
225204 33843 386
469170 711190 509
622831 110967 470
6348 962359 525
755937 854475 525
579444 97544 470
997047 456278 525
380938 182114 443
337146 271804 389
431988 339786 449
303364 643055 509
835046 24498 509
461887 242490 449
995866 415095 525
304939 511370 449
908910 739045 525
668060 973167 525
262528 93805 443
141042 222298 386
447438 592267 470
413470 520594 470
335799 408299 441
944523 685295 525
701236 567794 509
957633 927409 507
418993 3190 449
690973 560622 509
678934 24739 509
146266 349218 443
560123 901969 525
564194 627071 509
758116 957842 525
161511 49914 383
253686 347324 441
741306 702855 504
365360 645841 509
32653 344327 443
746040 289953 509
489326 784728 509
30257 188030 383
260350 484514 449
331599 751155 509
