650771 688991 442
306451 330075 384
63314 661035 509
312885 736685 509
223284 856601 525
516254 127168 470
231074 529428 470
833957 337658 509
495003 656601 509
366342 194763 443
29325 646476 509
687822 99121 509
298819 28900 443
593514 78122 470
940312 839657 507
126747 440066 449
189277 445488 449
218064 558052 470
66454 553669 470
315918 597069 470
639005 274500 509
574983 910841 525
82068 448158 449
337794 955184 525
638080 341909 509
299364 406933 441
99776 451875 449
92226 712855 509
620061 964985 525
603933 715473 509
260427 749720 509
521593 66517 470
298269 101061 443
203874 176255 365
436831 141065 449
305795 50600 443
228923 783374 509
249817 95873 443
228999 514046 470
536999 490408 470
508263 189059 449
451715 491401 444
882989 325428 525
571370 583704 390
218092 920632 525
724820 75789 509
249165 742767 509
563740 46448 470
523535 668198 509
37980 540902 470
395170 140071 443
106735 102766 354
419972 343781 449
577721 89914 470
860332 522962 525
143427 131664 375
746177 844534 525
190863 543830 470
214562 835869 509
674086 837872 525
667749 2020 509
60929 531024 470
732206 640432 504
803030 337965 509
173511 220621 386
701332 878424 525
334419 98854 443
463513 186140 449
428233 664543 509
3985 21873 279
870062 313810 525
791323 426076 509
233102 207436 443
598183 491121 470
84778 688516 509
13779 628908 509
166484 739512 509
428757 459422 400
955203 166847 525
584481 674363 509
293845 761107 509
540754 770200 509
252635 941758 525
630083 14472 509
760731 957586 525
56173 227086 386
155342 861203 525
930170 709310 525
437175 933718 525
751450 930308 525
334261 244712 407
228981 1828 386
524451 841171 525
993115 187492 525
909100 969439 507
515728 128305 470
977291 221280 525
192832 446341 449
311202 324064 384
570173 498068 470
487753 912307 525
597035 224408 470
834245 918227 525
113886 834178 509
808861 205418 509
340778 231720 407
991918 346627 525
244080 208468 443
790081 637024 504
243860 832038 509
964356 470125 525
78186 380003 443
905065 976930 507
810295 364153 509
438160 577708 470
644422 290953 509
857751 174022 525
456963 56684 449
136697 686126 509
774215 601662 509
107328 233104 443
158221 247357 443
592678 595366 328
899984 770720 525
364459 814286 509
612306 30597 470
245224 496220 449
581882 117852 470
204479 427004 449
128040 15714 354
561196 967190 525
196150 243752 443
85623 219039 386
572365 734243 509
468779 813819 509
82591 271726 443
352104 705710 509
632395 601318 509
85239 558821 470
356035 117399 443
573001 70298 470
615857 790116 509
839125 943482 507
35544 350502 443
913694 33724 525
749269 510613 509
681509 473251 509
127569 45836 354
736071 844492 525
193628 769931 509
108062 811827 509
458531 865781 525
309235 291659 371
465720 43256 449
224555 570940 470
641451 619849 509
679121 126465 509
102074 562937 470
543512 813734 509
584497 731655 509
675375 552873 509
751451 175042 509
514529 419437 470
811658 937726 525
571052 245931 470
735910 953294 525
640207 372296 509
956398 977372 458
385764 672757 509
895981 637672 525
882645 531931 525
272814 927479 525
126118 405463 443
333586 761701 509
851962 845646 419
426625 579468 470
812997 841500 525
686255 288158 509
438459 805766 509
887170 591557 525
591298 431524 470
75426 637813 509
668548 758674 504
14716 250224 443
928704 335489 525
969048 816850 525
260630 152801 443
149944 521676 470
82713 792381 509
238577 251078 368
802827 998261 525
416065 908431 525
906083 948938 507
670201 774879 504
79237 923597 525
898653 846496 445
387885 79308 443
29442 421581 449
265468 230599 443
454975 545311 470
