24526 44975 324
33460 11015 308
35556 23557 311
31751 48945 324
37409 49189 314
10934 14162 276
1006 24352 282
22312 26673 308
46549 40483 314
47049 33071 324
39680 21100 324
26917 47026 324
36147 24481 324
29255 48491 324
20805 32620 308
48216 43345 314
29681 49212 324
28558 34565 311
2057 43566 324
30005 38639 324
46340 45040 314
47358 44306 314
2080 28804 308
24968 38240 324
28393 10334 308
18301 32309 308
24129 18064 282
31605 34292 311
6295 14232 276
36585 2796 324
43432 20561 324
21947 15356 279
24620 17581 282
16744 34464 311
29312 10691 308
1562 30464 308
28361 48441 324
27007 14077 308
1382 16975 276
46100 27282 324
19572 32304 308
44839 2099 324
12037 44945 324
22596 17083 279
43520 37650 306
7404 35792 324
10327 1807 262
40154 18255 324
30862 29609 272
18686 23023 274
47390 46629 314
5797 36451 324
36973 27042 324
37640 15414 324
32820 40856 324
28187 44389 324
35415 32972 311
24624 38031 324
30781 28783 272
10139 24553 282
1641 46959 324
584 40219 324
35666 28671 324
36965 24445 324
41015 24251 324
29049 1041 308
21691 953 279
40579 15105 324
46082 44107 314
21308 47910 324
39248 47418 314
34218 44717 324
5493 15979 276
32737 49123 324
9713 8370 260
37656 10868 324
27082 31138 272
31489 40329 324
32272 28659 285
25531 22035 282
32157 47834 324
26767 36455 324
6434 44430 324
28310 32954 285
7287 25641 282
36382 47705 314
28729 21462 308
19120 8692 279
15118 23645 282
242 36828 324
47985 33513 324
37022 46981 314
30430 12596 308
6204 20665 279
25383 23487 282
5821 25204 282
38820 49310 314
48179 48516 252
34522 3411 311
13485 17972 279
5563 2315 238
44271 42171 288
9627 22730 279
36611 41180 306
41382 37378 306
47341 14140 324
40914 25588 324
5054 33417 308
32097 40942 324
29364 29665 272
47350 31957 324
10160 32132 308
34010 202 308
5845 13447 276
11686 26381 282
26697 18369 308
47012 23863 324
33224 44619 324
47217 3278 324
18001 49927 324
30024 12233 308
18408 26074 282
3033 47868 324
513 2307 183
11927 32789 308
3794 20583 279
32346 20916 308
18189 11090 279
2890 36032 324
44070 24877 324
31197 33207 285
27227 8048 308
23712 41348 324
4692 31841 308
33068 42533 324
46285 458 324
30103 25469 308
31124 11031 308
32058 13672 308
11383 32487 308
11846 46716 324
48899 43461 314
3399 8339 262
14038 3544 276
35901 14441 324
26131 45622 324
6999 30004 308
18140 31908 308
48977 44064 314
33886 17199 308
33664 34463 311
30665 37909 324
33388 48075 324
9689 11200 268
19994 16011 279
10064 38868 324
5971 20726 279
40570 25524 324
7164 37504 324
25925 26003 202
28130 5749 308
32601 13404 308
9179 8538 247
32747 47450 324
2704 48663 324
21249 17696 274
29637 7635 308
18950 14280 279
28208 14799 308
47820 10249 324
9443 27074 308
22684 14982 279
48572 19957 324
16902 47049 324
48967 4827 324
31886 33219 267
34623 28209 311
944 5495 238
31309 36157 324
44953 1788 324
8106 22892 279
24772 6107 282
16463 33962 308
49200 22849 324
44273 24673 324
13081 7600 268
40943 4823 324
3214 750 217
32221 21511 308
23401 39210 324
39602 691 324
35125 27240 311
39348 7882 324
37914 9290 324
28420 37292 324
43865 41450 288
37214 49523 314
47587 38693 314
42128 5990 324
41299 42041 257
