992452 994979 365
820301 992115 525
349973 939858 525
357651 822883 509
264762 452423 449
899498 951458 507
350544 428803 449
476349 966082 525
854667 909435 445
852725 872453 432
47275 526071 470
61958 583941 470
114712 500875 449
793119 897048 525
768982 809616 468
78046 347919 443
402111 473154 449
537726 561146 452
605694 983286 525
183370 299385 443
830001 962177 525
727698 803589 468
807513 951373 525
10924 250455 443
33675 169009 383
862819 903576 445
692258 954749 525
584397 849632 525
78526 534375 470
948522 997326 458
970568 976120 458
606396 989954 525
226229 794729 509
849072 928050 476
293081 400241 441
717624 794604 468
153552 164078 383
727734 900537 525
909246 978250 507
93059 537750 470
669351 964299 525
13544 550652 470
966860 974124 458
893435 905696 401
688900 986064 525
658398 679754 442
246159 439402 449
586638 815694 509
593328 645133 509
619936 808485 509
453720 479897 444
836227 841251 525
7655 15019 276
52478 678173 509
790958 889065 525
119442 229091 386
492712 916884 525
254961 397549 441
509246 946375 525
355658 919029 525
10361 851266 525
174682 244235 443
468625 767386 509
888329 939128 476
849004 974166 507
166339 240365 443
793647 920068 525
865449 882946 432
993817 996649 365
977920 986110 427
547075 744137 509
526023 791141 509
635548 850576 525
588065 823078 509
310671 646018 509
502410 569030 470
707538 940385 525
816607 904727 525
360674 996829 525
762762 810083 468
479562 491199 413
987183 997699 365
812510 814100 375
411620 760503 509
184396 286154 443
709889 795738 468
555883 834965 509
736365 823743 468
946066 946601 352
35313 280964 443
80850 429847 449
266888 359879 441
481140 542130 470
32311 772711 509
137241 282977 443
517124 908243 525
595095 980115 525
136058 724903 509
122361 974720 525
778627 920321 525
699251 999222 525
898250 936933 476
378976 965263 525
353831 642352 509
150470 515378 470
716431 923687 525
978455 994929 427
693763 924571 525
165402 467750 449
548805 749751 509
81527 434276 449
314424 677060 509
184202 318920 443
234309 466054 449
929759 980455 507
910113 935131 476
733532 738765 424
370118 514481 470
580549 594281 434
693822 764537 504
818375 872541 525
450718 578230 470
917382 942390 507
29387 786580 509
54274 575046 470
700063 813406 504
597218 978690 525
411061 982884 525
938341 962343 507
766300 999827 525
921166 995429 507
278753 951353 525
547201 963637 525
391319 868445 525
565860 835858 509
845031 874299 432
618425 839667 525
467831 492119 413
91055 848721 525
678897 737811 504
573438 933359 525
241854 802275 509
103192 305425 443
311108 422087 449
166855 766536 509
470253 504677 426
554692 780628 509
370420 832960 509
968384 986231 458
523643 810645 509
113664 691898 509
524516 614026 452
456849 950766 525
186930 613298 470
574554 826308 509
349496 422038 449
196022 884322 525
325185 881868 525
640830 726349 504
302640 483333 449
881658 990435 507
989628 990607 321
408753 746369 509
900242 925347 476
367944 690266 509
379392 606290 470
218894 826228 509
861102 961328 507
770057 813508 468
200498 561088 470
834013 837564 344
866007 968711 507
882999 918035 476
141881 624321 470
998074 999272 396
524891 964611 525
544149 564453 452
756932 824789 468
199049 700191 509
338945 614124 470
849646 930712 476
679854 905416 525
716698 833555 468
582523 745346 509
934095 986534 507
253267 493523 449
820906 892619 525
326120 736691 509
866503 935663 476
790661 929139 525
205528 941117 525
718172 784406 468
368711 656199 509
91799 610129 470
453382 813329 509
809111 946463 525
156708 173016 370
304147 385186 441
686068 949261 525
883904 937079 476
779542 962664 525
489473 542310 470
39915 600664 470
117823 875121 525
995826 999469 440
872323 881645 432
911360 952088 507
390470 417941 449
59752 577077 470
317502 622454 470
159981 964833 525
568336 731096 509
499595 788124 509
275712 781000 509
317514 646275 509
743141 763281 424
480937 720024 509
347501 735072 509
383722 411223 449
272307 509512 449
858286 925626 476
134708 938506 525
32090 951128 525
715934 747089 424
299961 359239 441
914938 922451 432
701276 910670 525
203769 739139 509
573158 577374 390
155841 702665 509
922965 972679 507
973735 981825 427
855317 939668 507
633286 882547 525
795197 998178 525
488220 516712 470
378599 646649 509
941257 999851 458
504679 977192 525
500294 733628 509
850206 944440 507
470765 995763 525
252084 750569 509
970996 976930 383
58198 814941 509
633927 686444 442
745923 788241 468
909445 917059 476
202470 328309 443
427222 675232 509
