1 10 20
100 200 125
201 210 89
900 1000 174
72098 48106 340
40650 25534 324
48347 18052 324
87116 70100 351
22918 27685 308
95196 86509 333
98926 60015 351
7519 63481 340
70807 21316 340
83036 75313 351
31213 56941 340
31384 16135 308
42705 83953 351
40618 75389 340
82679 95824 333
50615 95788 351
54118 4692 340
81908 66802 351
65329 51230 340
34811 5256 311
32289 80156 351
54099 59010 322
96051 44211 351
71218 92826 351
15817 54287 340
85421 34247 351
88056 82310 333
87007 3162 351
7258 44200 324
9521 98597 351
98268 69032 351
83629 43158 351
9420 41068 324
62600 58739 335
42885 27598 324
79161 27438 351
42712 96903 351
84842 47373 351
30419 91709 351
51674 84340 351
38128 3393 324
46247 80882 351
43819 15051 324
21245 91287 351
6254 40059 324
68748 49303 340
4762 35061 311
31862 20821 308
10825 86806 351
9993 17670 279
45329 88332 351
14315 59848 340
30680 69325 340
24679 43284 324
82970 14434 351
56023 33647 340
37777 16930 324
326 41012 324
32408 93204 351
12568 8879 268
70483 48535 340
43536 31903 324
49716 44314 314
75606 11490 340
9791 16280 276
31559 11241 308
23829 45562 324
21492 45290 324
88208 99416 333
10197 58832 340
58796 98822 351
75167 99943 351
59181 8633 340
30476 83568 351
4793 9070 262
13872 94427 351
68564 31018 340
78888 148 351
55294 73811 335
5144 19903 279
85509 41340 351
82882 17164 351
46276 50990 314
76875 1274 340
14693 67814 340
52035 49539 309
91575 34032 351
96806 55882 351
26954 29772 272
2186 24985 282
33808 39795 324
22974 12425 279
96835 41474 351
36913 33011 324
50686 22282 324
22041 5854 279
57632 75542 335
74953 17772 340
40400 8560 324
55309 99078 351
85357 37415 351
12106 26852 308
60403 76281 335
65030 65337 224
92188 13144 351
88482 42100 351
61701 86919 351
4004 93760 351
61818 85954 351
4920 83382 351
84750 37407 351
13325 83579 351
48813 20518 324
28710 62257 340
44124 32596 324
28085 85472 351
28389 48482 324
4480 51101 324
25135 96798 351
91289 6565 351
54082 23969 340
28206 93063 351
67686 71400 325
45092 61172 340
94863 26045 351
37893 551 324
95402 58426 351
41592 98844 351
33369 8177 308
71157 65987 312
31083 23355 308
57760 53663 322
65223 30040 340
138 83735 351
10851 7700 260
40324 7168 324
4208 22378 279
62056 14347 340
74998 69510 325
60585 33684 340
18488 16719 279
46996 85618 351
1039 7614 262
22835 60329 340
52585 86270 351
37375 52048 314
73992 50089 340
82081 44220 351
58862 24619 340
34857 23240 311
79020 33239 351
41206 38583 306
22958 80904 351
15261 4913 276
26269 29602 308
98134 54308 351
58007 94416 351
30771 74831 340
29423 11359 308
65913 98340 351
82093 16448 351
54030 59517 322
33009 27715 285
1110 49067 324
5874 79981 351
26880 6171 308
49277 68602 340
86821 66428 351
83525 14398 351
51662 26103 324
8589 70178 340
45722 14114 324
87120 53277 351
57889 72618 335
47231 42937 314
30618 46268 324
15630 1813 276
27956 17717 308
37631 94939 351
19354 56253 340
38837 67338 340
80938 59804 351
89209 80690 333
91069 10162 351
31347 83547 351
14854 29430 308
60967 17678 340
62411 95939 351
41552 47368 314
29811 89218 351
68551 51300 340
11479 67988 340
72852 73556 294
74244 76555 325
17934 11978 279
26274 85111 351
5509 20099 279
38354 99595 351
62886 59902 335
92651 15016 351
88167 92945 333
20996 84032 351
61496 88645 351
98963 10650 351
85371 88920 333
55213 70641 335
84255 5648 351
53232 76097 335
41263 83734 351
77480 31645 351
85932 54918 351
64968 81607 351
4390 67091 340
28401 15695 308
8286 32263 308
97563 19320 351
7317 19900 279
74681 68526 325
71071 6681 340
30681 2199 308
38456 30242 324
29444 93946 351
27998 20970 308
38807 71736 340
37706 18601 324
50391 8690 324
88556 20375 351
77844 57844 351
44460 66311 340
21544 98926 351
62142 73093 330
9170 60385 340
83354 99786 333
50521 51913 309
96688 31970 351
39271 7922 324
72558 91339 351
27419 20654 308
64283 62490 330
70097 52261 340
19042 58604 340
83222 37404 351
81619 75548 351
55625 23425 340
82003 58468 351
30067 30857 272
1 999999 525
999999 1 525
